{
  "name": "",
  "css_prefix_text": "icon-",
  "css_use_suffix": false,
  "hinting": true,
  "units_per_em": 1000,
  "ascent": 850,
  "glyphs": [
    {
      "uid": "2c576f7c6c3233c31abad0899fc9f4af",
      "css": "user",
      "code": 59399,
      "src": "elusive"
    },
    {
      "uid": "e36d581e4f2844db345bddc205d15dda",
      "css": "users",
      "code": 59401,
      "src": "elusive"
    },
    {
      "uid": "76f961b11f65300838a5a78856aca30f",
      "css": "squares",
      "code": 59400,
      "src": "elusive"
    },
    {
      "uid": "74415da8e36ed0afcea9b2b1454f4176",
      "css": "delete",
      "code": 59392,
      "src": "elusive"
    },
    {
      "uid": "829c06a0a3b73b02a6224f4bbb73d99c",
      "css": "home",
      "code": 59402,
      "src": "elusive"
    },
    {
      "uid": "7b6c617d6d1e3f22db493839f0483bf6",
      "css": "edit",
      "code": 59398,
      "src": "elusive"
    },
    {
      "uid": "64fb13a798e934810c303e6b07791816",
      "css": "doc",
      "code": 59397,
      "src": "elusive"
    },
    {
      "uid": "df09e8471b1f0ffb10db52d28dd8104d",
      "css": "folder",
      "code": 59403,
      "src": "elusive"
    },
    {
      "uid": "6083c8aa5e3345476a24a28ac1afaa61",
      "css": "cog",
      "code": 59395,
      "src": "elusive"
    },
    {
      "uid": "cde79a37774e5817bc68fff2464aee28",
      "css": "wrench",
      "code": 59394,
      "src": "elusive"
    },
    {
      "uid": "dea46bc85920f9a05bf7c7251fb10f10",
      "css": "move",
      "code": 59393,
      "src": "elusive"
    },
    {
      "uid": "c835a3a0692cca9dffde9a8a561da938",
      "css": "off",
      "code": 59396,
      "src": "elusive"
    }
  ]
}