<?xml version="1.0" standalone="no"?>
<!DOCTYPE svg PUBLIC "-//W3C//DTD SVG 1.1//EN" "http://www.w3.org/Graphics/SVG/1.1/DTD/svg11.dtd">
<svg xmlns="http://www.w3.org/2000/svg">
<metadata>Copyright (C) 2014 by original authors @ fontello.com</metadata>
<defs>
<font id="fontello" horiz-adv-x="1000" >
<font-face font-family="fontello" font-weight="400" font-stretch="normal" units-per-em="1000" ascent="850" descent="-150" />
<missing-glyph horiz-adv-x="1000" />
<glyph glyph-name="user" unicode="&#xe807;" d="m0-150l0 156q0 24 58 58t159 71q99 35 137 73t37 101q0 29-27 72t-32 59q-12 35-29 135-10 52-14 93-2 22 6 50t28 60 67 51 110 21 110-21 67-51 28-60 6-50q-4-41-14-93-17-100-29-135-6-16-32-59t-27-72q0-64 37-101t137-73q217-80 217-129l0-156-1000 0z" horiz-adv-x="1000" />
<glyph glyph-name="off" unicode="&#xe804;" d="m0 350q0 207 147 354l101-102q-105-103-105-252t104-253 253-104 253 104 104 253-105 252l102 102q146-147 146-354t-146-354-354-146-353 146-147 354z m428-78l0 578 144 0 0-578-144 0z" horiz-adv-x="1000" />
<glyph glyph-name="squares" unicode="&#xe808;" d="m0-150l0 438 438 0 0-438-438 0z m0 563l0 437 438 0 0-437-438 0z m563-563l0 438 437 0 0-438-437 0z m0 563l0 437 437 0 0-437-437 0z" horiz-adv-x="1000" />
<glyph glyph-name="delete" unicode="&#xe800;" d="m0 350q0 207 147 354t353 146 354-146 146-354-146-354-354-146-353 146-147 354z m109 0q0-162 115-276t276-115 276 115 115 276-115 276-276 115-276-115-115-276z m145-137l137 137-137 137 109 109 137-137 137 137 109-109-137-137 137-137-109-109-137 137-137-137z" horiz-adv-x="1000" />
<glyph glyph-name="home" unicode="&#xe80a;" d="m0-150l0 649 453 351 453-351 0-649-312 0 0 391-281 0 0-391-313 0z" horiz-adv-x="906" />
<glyph glyph-name="edit" unicode="&#xe806;" d="m0-150l0 818 188 182 521 0 0-226 31 31 162-160-380-381-239-78 76 238 262 262 0 226-369 0 0-156-164 0 0-668 533 0 0 143 88 87 0-318-709 0z m361 264l119 39-80 82z" horiz-adv-x="902" />
<glyph glyph-name="users" unicode="&#xe809;" d="m0 106l0 134q0 26 18 32l171 80q-66 39-68 131 0 56 35 103 37 41 90 43 31 0 63-19-49-125 23-237-12-11-25-19l-114-55q-48-23-52-84l0-143-114 0q-25 0-27 34z m193-59l0 168q0 27 22 37l152 70 57 28q-37 23-60 66t-22 94q0 76 46 130t110 54 109-54 45-130q0-106-78-158l61-30 146-70q24-10 24-37l0-168q-2-37-37-41l-541 0q-14 2-24 14t-10 27z m473 330q68 106 22 231 31 19 66 21 49 0 90-43 35-41 35-103 0-82-65-131l168-80q18-10 18-32l0-134q0-32-27-34l-118 0 0 143q0 57-50 84l-110 53q-15 8-29 25z" horiz-adv-x="1000" />
<glyph glyph-name="folder" unicode="&#xe80b;" d="m0-52l0 55 147 505 853 0-172-560-828 0z m0 205l0 510 139 0 68 90 217 0 68-90 336 0 0-121-724 0z" horiz-adv-x="1000" />
<glyph glyph-name="cog" unicode="&#xe803;" d="m0 272l0 156 150 16q14 45 38 88l-96 117 109 109 117-95q41 23 88 37l16 150 156 0 16-150q45-14 88-37l117 95 109-109-96-117q24-43 38-88l150-16 0-156-150-16q-14-47-38-88l96-117-109-109-117 96q-43-24-88-38l-16-150-156 0-16 150q-47 14-88 38l-117-96-109 109 96 117q-24 41-38 88z m355 78q0-60 42-102t103-42 103 42 42 102-42 103-103 42-103-42-42-103z" horiz-adv-x="1000" />
<glyph glyph-name="wrench" unicode="&#xe802;" d="m0 21l463 463q-25 68-10 145t72 134 133 72 147-10l-162-162 45-117 115-45 164 164q25-70 9-147t-73-133-132-72-148 8l-463-462z m113-2q0-20 14-34t33-13 33 13 14 34-14 33-33 14-33-14-14-33z" horiz-adv-x="982" />
<glyph glyph-name="move" unicode="&#xe801;" d="m0 350l172 172 0-119 275 0 0 275-119 0 172 172 172-172-119 0 0-275 275 0 0 119 172-172-172-172 0 119-275 0 0-275 119 0-172-172-172 172 119 0 0 275-275 0 0-119z" horiz-adv-x="1000" />
<glyph glyph-name="doc" unicode="&#xe805;" d="m0-150l0 674 338 0 0 326 371 0 0-1000-709 0z m0 756l0 62 189 182 65 0 0-244-254 0z" horiz-adv-x="709" />
</font>
</defs>
</svg>